{
  "schemaVersion": 1,
  "id": "toggle-scoreboard",
  "version": "${version}",

  "name": "Toggle Scoreboard",
  "description": "A simple mod that adds a keybind to toggle the scoreboard!",
  "authors": [
    "Michael Bartosh <mike.ebj@protonmail.com>"
  ],
  "contact": {},

  "license": "ARR",
  "icon": "assets/toggle-scoreboard/icon.png",

  "environment": "*",
  "entrypoints": {
    "main": [
      "us.mikebartosh.minecraft.togglescoreboard.ToggleScoreboard"
    ]
  },
  "mixins": [
    "toggle-scoreboard.mixins.json"
  ],

  "depends": {
    "fabricloader": ">=0.14.11",
    "cloth-config2": ">=9.0.93",
    "fabric": "*",
    "minecraft": ">=1.20",
    "java": ">=17"
  },
  "suggests": {}
}
