{
  "required": true,
  "minVersion": "0.8",
  "package": "us.mikebartosh.minecraft.togglescoreboard.mixin",
  "compatibilityLevel": "JAVA_17",
  "mixins": [
  ],
  "client": [
    "MixinInGameHud"
  ],
  "injectors": {
    "defaultRequire": 1
  }
}
